{
	"entryPoints": [ "source/index.ts" ],
	"out": "public/",
	"plugin": [ "typedoc-plugin-coverage" ],
	"visibilityFilters":
	{
		"protected": false,
		"private": false,
		"inherited": false,
		"external": false
    },
    "groupOrder": [ "Setup", "Utilities", "Requests", "Notifications", "*"],
    "navigation":
    {
		"includeCategories": false,
		"includeGroups": true
	},
	"navigationLinks":
	{
		"Network": "https://electrum-cash.gitlab.io/network/",
		"Protocol": "https://electrum-cash.gitlab.io/protocol/",
		"Application": "https://electrum-cash.gitlab.io/application/",
		"|": "",
		"Servers": "https://electrum-cash.gitlab.io/servers/",
		"Checkpoint": "https://electrum-cash.gitlab.io/checkpoint/"
	}
}
